simulation/qsim/PBL2-CD.msim.vcd
$comment
	File created using the following command:
		vcd file PBL2-CD.msim.vcd -direction
$end
$date
	Thu Nov 03 09:05:31 2022
$end
$version
	ModelSim Version 2020.1
$end
$timescale
	1ps
$end

$scope module Main_vlg_vec_tst $end
$var reg 1 ! Clock $end
$var reg 8 " Vagas [7:0] $end
$var wire 1 # Colunas [1] $end
$var wire 1 $ Colunas [0] $end
$var wire 1 % DigitoAceso [3] $end
$var wire 1 & DigitoAceso [2] $end
$var wire 1 ' DigitoAceso [1] $end
$var wire 1 ( DigitoAceso [0] $end
$var wire 1 ) Display [6] $end
$var wire 1 * Display [5] $end
$var wire 1 + Display [4] $end
$var wire 1 , Display [3] $end
$var wire 1 - Display [2] $end
$var wire 1 . Display [1] $end
$var wire 1 / Display [0] $end
$var wire 1 0 Linhas [3] $end
$var wire 1 1 Linhas [2] $end
$var wire 1 2 Linhas [1] $end
$var wire 1 3 Linhas [0] $end

$scope module i1 $end
$var wire 1 4 gnd $end
$var wire 1 5 vcc $end
$var wire 1 6 unknown $end
$var tri1 1 7 devclrn $end
$var tri1 1 8 devpor $end
$var tri1 1 9 devoe $end
$var wire 1 : Clock~combout $end
$var wire 1 ; comb_3|divideMetade|flipflop1|Q~regout $end
$var wire 1 < somadorDeVagas|somador1|Sub1|Xor1~combout $end
$var wire 1 = somadorDeVagas|somador6|Sub1|Xor1~combout $end
$var wire 1 > somadorDeVagas|somador7|Sub1|Xor1~combout $end
$var wire 1 ? somadorDeVagas|somador7|Sub1|And2~combout $end
$var wire 1 @ somadorDeVagas|somador6|Sub2|Xor1~combout $end
$var wire 1 A somadorDeVagas|somador5|Sub2|S~0_combout $end
$var wire 1 B somadorDeVagas|somador6|Sub1|And2~combout $end
$var wire 1 C somadorDeVagas|somador7|Sub2|S~0_combout $end
$var wire 1 D comb_3|case1|Mux2~0_combout $end
$var wire 1 E somadorDeVagas|somador7|Sub2|S~1_combout $end
$var wire 1 F somadorDeVagas|comb_3|somador1|Sub2|And1~combout $end
$var wire 1 G somadorDeVagas|somador7|Sub2|Cout~0_combout $end
$var wire 1 H somadorDeVagas|somador5|Sub2|Cout~0_combout $end
$var wire 1 I somadorDeVagas|somador6|Sub2|Cout~0_combout $end
$var wire 1 J somadorDeVagas|somador7|Sub3|S~0_combout $end
$var wire 1 K comb_3|case1|Mux1~0_combout $end
$var wire 1 L somadorDeVagas|somador7|Sub3|Cout~0_combout $end
$var wire 1 M somadorDeVagas|comb_3|somador1|Sub4|S~combout $end
$var wire 1 N comb_3|case1|Mux0~0_combout $end
$var wire 1 O comb_3|case1|Mux3~0_combout $end
$var wire 1 P comb_3|decodificador1|WideOr6~0_combout $end
$var wire 1 Q comb_3|decodificador1|WideOr5~0_combout $end
$var wire 1 R comb_3|decodificador1|WideOr4~0_combout $end
$var wire 1 S comb_3|decodificador1|WideOr3~0_combout $end
$var wire 1 T comb_3|decodificador1|WideOr2~0_combout $end
$var wire 1 U comb_3|decodificador1|WideOr1~0_combout $end
$var wire 1 V comb_3|decodificador1|WideOr0~0_combout $end
$var wire 1 W selecionaVaga|Lin[0]~0_combout $end
$var wire 1 X selecionaVaga|Lin[1]~1_combout $end
$var wire 1 Y selecionaVaga|Lin[2]~2_combout $end
$var wire 1 Z selecionaVaga|Lin[3]~3_combout $end
$var wire 1 [ comb_3|Demux1|Decoder0~0_combout $end
$var wire 1 \ comb_3|Demux1|Decoder0~1_combout $end
$var wire 1 ] comb_3|Demux1|Decoder0~2_combout $end
$var wire 1 ^ comb_3|Demux1|Decoder0~3_combout $end
$var wire 1 _ Vagas~combout [7] $end
$var wire 1 ` Vagas~combout [6] $end
$var wire 1 a Vagas~combout [5] $end
$var wire 1 b Vagas~combout [4] $end
$var wire 1 c Vagas~combout [3] $end
$var wire 1 d Vagas~combout [2] $end
$var wire 1 e Vagas~combout [1] $end
$var wire 1 f Vagas~combout [0] $end
$upscope $end
$upscope $end
$enddefinitions $end
#0
$dumpvars
0!
b11100000 "
1$
0#
0(
1'
1&
1%
0/
1.
0-
0,
0+
1*
0)
03
02
11
10
04
15
x6
17
18
19
0:
0;
0<
1=
1>
0?
1@
0A
0B
1C
0D
1E
1F
0G
0H
0I
0J
1K
0L
1M
0N
1O
0P
1Q
0R
0S
0T
1U
1V
1W
1X
0Y
0Z
0[
0\
0]
0^
0f
0e
0d
0c
0b
1a
1`
1_
$end
#200000
1!
b11100001 "
1:
1f
1]
1[
1Z
0X
0K
1D
1<
1#
0$
1T
0Q
1?
0>
1(
12
00
0&
1G
0F
0C
0O
1+
0.
1J
0D
0T
1R
1K
0V
0U
0R
0+
1-
1V
1T
1S
1P
0*
0-
1)
1+
1,
1/
0)
1;
1^
0]
1O
1N
0K
1D
0V
1U
0T
0S
1Q
0P
1&
0%
1*
0+
0,
1.
0/
1)
#400000
b11100011 "
0!
b11100010 "
0f
1e
0:
0^
1\
1X
0O
0#
1$
1T
1P
02
0'
1%
1+
1/
#600000
1!
b11100011 "
1:
1f
1^
0\
0X
1O
1A
0<
1#
0$
0T
0P
1F
1C
0?
1>
12
1'
0%
0C
0+
0/
0;
0^
1]
0N
1K
0D
1V
0&
1%
0)
#800000
b11100111 "
b11100101 "
0!
b11100100 "
0f
0e
1d
0:
0Z
0A
1?
0>
0]
0[
1X
0K
1D
0#
1$
0F
0O
0D
1T
0Q
0(
02
1&
10
1K
0V
0U
0T
1+
0.
1V
1T
1S
1P
0*
0+
1)
1+
1,
1/
0)
#1000000
1!
b11100101 "
1:
1f
1]
1[
1Z
1Y
0X
1A
1<
1#
0$
1F
1C
0?
1>
1(
12
01
00
0&
1D
0C
1O
0V
1U
0P
0D
1V
0T
0S
1Q
1*
0/
1)
0+
0,
1.
0)
1;
1^
0]
1N
0K
1D
0V
1&
0%
1)
#1200000
b11100111 "
0!
b11100110 "
0f
1e
0:
0^
1\
0Y
1X
0O
0#
1$
1T
1P
02
11
0'
1%
1+
1/
#1400000
1!
b11100111 "
1:
1f
1^
0\
1Y
0X
1O
0<
1#
0$
0T
0P
1?
0>
12
01
1'
0%
1C
0+
0/
0;
0^
1]
0O
0N
1K
1V
0U
0&
1%
0*
0)
#1600000
b11101111 "
b11101011 "
b11101001 "
0!
b11101000 "
0f
0e
0d
1c
0:
0Z
0A
0]
0[
1X
0K
0#
1$
0F
0C
1U
1R
0Q
0(
02
1&
10
1K
0D
1*
1-
0.
0U
1T
1S
0R
1P
0*
1+
1,
0-
1/
#1800000
1!
b11101001 "
1:
1f
1]
1[
1Z
0Y
0X
1A
1<
1#
0$
1F
1C
0?
1>
1(
12
11
00
0&
1D
0C
1O
0V
1U
0P
0D
1V
0T
0S
1Q
1*
0/
1)
0+
0,
1.
0)
1;
1^
0]
1N
0K
1D
0V
1&
0%
1)
#2000000
b11101011 "
0!
b11101010 "
0f
1e
0:
0^
1\
1Y
1X
0O
0#
1$
1T
1P
02
01
0'
1%
1+
1/
#2200000
1!
b11101011 "
1:
1f
1^
0\
0Y
0X
1O
0<
1#
0$
0T
0P
1?
0>
12
11
1'
0%
1C
0+
0/
0;
0^
1]
0O
0N
1K
1V
0U
0&
1%
0*
0)
#2400000
b11101111 "
b11101101 "
0!
b11101100 "
0f
0e
1d
0:
0Z
1Y
0?
1>
0]
0[
1X
0K
0#
1$
0C
1O
0D
1U
1R
0Q
0(
02
1&
01
10
1D
0V
1T
1S
0R
1P
1*
1-
0.
1V
0S
0P
1+
1,
0-
1/
1)
0,
0/
0)
#2600000
1!
b11101101 "
1:
1f
1]
1[
1Z
0X
1K
0D
1<
1#
0$
0T
1Q
1?
0>
1(
12
00
0&
1C
0O
0+
1.
1D
0U
1T
1S
0Q
1P
0T
0S
1Q
0P
0*
1+
1,
0.
1/
0+
0,
1.
0/
1;
1^
0]
1O
1N
0K
0V
1U
1&
0%
1*
1)
#2800000
b11101111 "
0!
b11101110 "
0f
1e
0:
0^
1\
1X
0O
0#
1$
1T
1P
02
0'
1%
1+
1/
#3000000
1!
b11101111 "
1:
1f
1^
0\
0X
1O
1H
0A
0<
1#
0$
0T
0P
0M
1L
0J
0F
0C
0?
1>
12
1'
0%
1M
0G
1F
1C
0+
0/
0L
1J
0;
0^
1]
0N
1K
1T
1S
0Q
0&
1%
1+
1,
0.
#3200000
b11111111 "
b11110111 "
b11110011 "
b11110001 "
0!
b11110000 "
0f
0e
0d
0c
1b
0:
0Z
0H
0Y
1X
1I
0E
0@
0=
0]
0[
0K
0D
0#
1$
0C
0>
1P
0(
1&
02
11
10
0O
0F
1/
0U
0T
0S
0P
1K
1V
1T
1S
1P
0*
0+
0,
0/
1+
1,
1/
0)
#3400000
1!
b11110001 "
1:
1f
1]
1[
1Z
1<
1#
0$
1>
1(
00
0&
1O
1F
1U
0T
0S
1Q
0P
1*
0+
0,
1.
0/
1;
1^
0]
1N
0K
1D
0V
1&
0%
1)
#3600000
b11110011 "
0!
b11110010 "
0f
1e
0:
0^
1\
0O
0#
1$
1T
1P
0'
1%
1+
1/
#3800000
1!
b11110011 "
1:
1f
1^
0\
1O
1A
0<
1#
0$
0T
0P
1C
0>
1'
0%
0+
0/
0;
0^
1]
0O
0N
1K
1V
0U
0&
1%
0*
0)
#4000000
b11110111 "
b11110101 "
0!
b11110100 "
0f
0e
1d
0:
0Z
0A
1>
0]
0[
0K
0#
1$
0C
1O
0D
1U
1R
0Q
0(
1&
10
1D
0V
1T
1S
0R
1P
1*
1-
0.
1V
0S
0P
1+
1,
0-
1/
1)
0,
0/
0)
#4200000
1!
b11110101 "
1:
1f
1]
1[
1Z
1Y
1K
0D
1A
1<
1#
0$
0T
1Q
1C
0>
1(
01
00
0&
1D
0O
0+
1.
0U
0*
1;
1^
0]
1O
1N
0K
0V
1U
1&
0%
1*
1)
#4400000
b11110111 "
0!
b11110110 "
0f
1e
0:
0^
1\
0Y
0O
0#
1$
1T
1P
11
0'
1%
1+
1/
#4600000
1!
b11110111 "
1:
1f
1^
0\
1Y
1O
0<
1#
0$
0T
0P
1>
01
1'
0%
0+
0/
0;
0^
1]
0N
1K
1T
1S
0Q
0&
1%
1+
1,
0.
#4800000
b11111111 "
b11111011 "
b11111001 "
0!
b11111000 "
0f
0e
0d
1c
0:
0Z
0A
0]
0[
0K
0D
0#
1$
0C
1P
0(
1&
10
1D
1/
1V
0S
0P
0,
0/
0)
#5000000
1!
b11111001 "
1:
1f
1]
1[
1Z
0Y
1K
0D
1A
1<
1#
0$
0T
1Q
1C
0>
1(
11
00
0&
1D
0O
0+
1.
0U
0*
1;
1^
0]
1O
1N
0K
0V
1U
1&
0%
1*
1)
#5200000
b11111011 "
0!
b11111010 "
0f
1e
0:
0^
1\
1Y
0O
0#
1$
1T
1P
01
0'
1%
1+
1/
#5400000
1!
b11111011 "
1:
1f
1^
0\
0Y
1O
0<
1#
0$
0T
0P
1>
11
1'
0%
0+
0/
0;
0^
1]
0N
1K
1T
1S
0Q
0&
1%
1+
1,
0.
#5600000
b11111111 "
b11111101 "
0!
b11111100 "
0f
0e
1d
0:
0Z
1Y
0>
0]
0[
0K
0D
0#
1$
0O
1D
1P
0(
1&
01
10
1V
0T
0S
1R
0P
1/
0+
0,
1-
0/
0)
#5800000
1!
b11111101 "
1:
1f
1]
1[
1Z
1K
1<
1#
0$
0U
0R
1Q
1>
1(
00
0&
1O
0*
0-
1.
0V
1U
1T
1S
0Q
1*
1+
1,
0.
1)
1;
1^
0]
1N
0K
0T
0S
1Q
1&
0%
0+
0,
1.
#6000000
b11111111 "
0!
b11111110 "
0f
1e
0:
0^
1\
0O
0#
1$
1T
1P
0'
1%
1+
1/
#6200000
1!
b11111111 "
1:
1f
1^
0\
1O
1H
0A
0<
1#
0$
0T
0P
0M
1L
0J
0C
0>
1'
0%
0F
0+
0/
1M
0;
0^
1]
0O
0D
1V
0U
0Q
0&
1%
0*
0.
0)
#6400000
b1111111 "
b111111 "
b11111 "
b1111 "
b111 "
b11 "
b1 "
0!
b0 "
0f
0e
0d
0c
0b
0a
0`
0_
0:
0Z
0H
0Y
0X
0I
0W
0]
0[
0N
0#
1$
0M
0L
0V
0(
1&
13
12
11
10
1N
1)
1V
0)
#6600000
1!
b1 "
1:
1f
1]
1[
1Z
0N
1<
1#
0$
0V
1>
1(
00
0&
1O
1F
1)
1U
1T
1S
1P
1M
1*
1+
1,
1/
1;
1^
0]
1N
1D
0T
0S
1Q
0P
1&
0%
0+
0,
1.
0/
#6800000
b11 "
0!
b10 "
0f
1e
0:
0^
1\
0O
0#
1$
1T
1P
0'
1%
1+
1/
#7000000
1!
b11 "
1:
1f
1^
0\
1O
1A
0<
1#
0$
0T
0P
1C
0>
1'
0%
0+
0/
0;
0^
1]
0O
0N
1V
1R
0Q
0&
1%
1-
0.
0)
#7200000
b111 "
b101 "
0!
b100 "
0f
0e
1d
0:
0Z
0A
1>
0]
0[
1K
0#
1$
0C
1O
0D
0U
0R
1Q
0(
1&
10
1D
1U
0*
0-
1.
0V
1T
1S
0Q
1*
1+
1,
0.
1)
#7400000
1!
b101 "
1:
1f
1]
1[
1Z
1Y
0K
0D
1A
1<
1#
0$
1P
1C
0>
1(
01
00
0&
1D
0O
1/
1V
0T
0S
1R
0P
0+
0,
1-
0/
0)
1;
1^
0]
1O
1N
0V
0R
1Q
1&
0%
0-
1.
1)
#7600000
b111 "
0!
b110 "
0f
1e
0:
0^
1\
0Y
0O
0#
1$
1T
1P
11
0'
1%
1+
1/
#7800000
1!
b111 "
1:
1f
1^
0\
1Y
1O
0<
1#
0$
0T
0P
1>
01
1'
0%
0+
0/
0;
0^
1]
0N
1V
1T
0Q
0&
1%
1+
0.
0)
#8000000
b1111 "
b1011 "
b1001 "
0!
b1000 "
0f
0e
0d
1c
0:
0Z
0A
0]
0[
1K
0D
0#
1$
0C
0T
1Q
0(
1&
10
1D
0+
1.
0V
1T
1S
0Q
1+
1,
0.
1)
#8200000
1!
b1001 "
1:
1f
1]
1[
1Z
0Y
0K
0D
1A
1<
1#
0$
1P
1C
0>
1(
11
00
0&
1D
0O
1/
1V
0T
0S
1R
0P
0+
0,
1-
0/
0)
1;
1^
0]
1O
1N
0V
0R
1Q
1&
0%
0-
1.
1)
#8400000
b1011 "
0!
b1010 "
0f
1e
0:
0^
1\
1Y
0O
0#
1$
1T
1P
01
0'
1%
1+
1/
#8600000
1!
b1011 "
1:
1f
1^
0\
0Y
1O
0<
1#
0$
0T
0P
1>
11
1'
0%
0+
0/
0;
0^
1]
0N
1V
1T
0Q
0&
1%
1+
0.
0)
#8800000
b1111 "
b1101 "
0!
b1100 "
0f
0e
1d
0:
0Z
1Y
0>
0]
0[
1K
0D
0#
1$
0O
1D
0T
1Q
0(
1&
01
10
0U
0+
1.
0*
#9000000
1!
b1101 "
1:
1f
1]
1[
1Z
0K
1<
1#
0$
1U
1R
0Q
1>
1(
00
0&
1O
1*
1-
0.
1T
0R
1+
0-
1;
1^
0]
1N
0V
0T
1Q
1&
0%
0+
1.
1)
#9200000
b1111 "
0!
b1110 "
0f
1e
0:
0^
1\
0O
0#
1$
1T
1P
0'
1%
1+
1/
#9400000
1!
b1111 "
1:
1f
1^
0\
1O
1H
0A
0<
1#
0$
0T
0P
1J
0C
0>
1'
0%
0F
0+
0/
0;
0^
1]
0O
0N
1K
0D
1V
0U
1T
1S
0Q
1P
0&
1%
0*
1+
1,
0.
1/
0)
#9600000
b11111 "
b10111 "
b10011 "
b10001 "
0!
b10000 "
0f
0e
0d
0c
1b
0:
0Z
0H
0Y
1=
0]
0[
0#
1$
0M
0J
1>
0(
1&
11
10
1N
0K
1O
1F
1D
0V
1U
0T
0S
1Q
0P
1M
1K
0N
1T
1S
1R
1P
1*
0+
0,
1.
0/
1)
0R
0Q
0P
1+
1,
1-
1/
0-
0.
0/
#9800000
1!
b10001 "
1:
1f
1]
1[
1Z
1X
0K
0D
1<
1#
0$
1P
1?
0>
1(
02
00
0&
1C
0O
1/
1D
0U
0T
0S
0P
1V
1U
1R
0*
0+
0,
0/
1*
1-
0)
1;
1^
0]
1O
1N
0V
0R
1Q
1&
0%
0-
1.
1)
